How Men and Women Differ in the Eyes of Philosophy
…
From a quick glance at the top words, we can see that man is the top word for 4 of the 13 schools!

One should note, that for the purposes of this analysis, we left in man and men despite them being present in the stop_words list.

Term Frequency using TF-IDF

However, just because a term appears many times in a document does not mean these words are distinctive. Instead, we can use TF-IDF to identify the unique words that are most characteristic of a book when compared to other books.

Term Frequency (TF) and Inverse Document Frequency (IDF) are two particular approaches that allow us to identify the top words among a corpus (collection) of documents. Using the bind_tf_idf function, we can now identify the top words for each school of thought, relative to the other schools of thought.

A visual representnation of the top 10 words using TF-IDF reveals many more interesting words for each school of thought.

## # A tibble: 245,502 x 6
## # Groups:   school [13]
##    school          word                n      tf   idf  tf_idf
##    <chr>           <chr>           <int>   <dbl> <dbl>   <dbl>
##  1 nietzsche       zarathustra       589 0.00595 1.47  0.00873
##  2 phenomenology   dasein           1634 0.00665 1.18  0.00784
##  3 german_idealism determinateness  1305 0.00312 1.87  0.00583
##  4 communism       capitalist        843 0.00466 1.18  0.00550
##  5 stoicism        hast               83 0.00480 0.956 0.00459
##  6 stoicism        mayest             41 0.00237 1.87  0.00444
##  7 stoicism        dost               65 0.00376 1.18  0.00443
##  8 phenomenology   sein              737 0.00300 1.47  0.00440
##  9 communism       labour           3305 0.0183  0.167 0.00305
## 10 analytic        counterfactual    449 0.00118 2.56  0.00303
## #  with 245,492 more rows
…
